LISTING FOR LOGIC DESCRIPTION FILE: DUALSID_PATCHED.pld              Page 1

CUPL(WM): Universal Compiler for Programmable Logic
Version 5.0a Serial# 60008009
Copyright (c) 1983, 1998 Logical Devices, Inc.
Created Wed Aug 16 17:59:11 2023

  1:Name     DualSID_Patched ;
  2:PartNo   00 ;
  3:Date     16.08.2023 ;
  4:Revision 01 ;
  5:Designer Volker Oth ;
  6:Company  silly puppies ;
  7:Assembly None ;
  8:Location  ;
  9:Device   g16v8a ;
 10:
 11:/* *************** INPUT PINS *********************/
 12:PIN  2  = A5_SEL; /* A5 select high active */ 
 13:PIN  3  = A8_SEL; /* A8 select high active */ 
 14:PIN  4  = A5;     /* Adress line high active */ 
 15:PIN  5  = A8;     /* Adress line high active */ 
 16:PIN  6  = RW_SID; /* Read Write line read hi write lo */
 17:PIN  9  = CS_SID; /* SID CS low active */ 
 18:/* *************** OUTPUT PINS *********************/
 19:PIN  19 = CS_SID1; /* low active CS for 1st SID */ 
 20:PIN  18 = CS_SID2; /* low active CS for 2nd SID */ 
 21:PIN  15 = RW_SID2; /* Read Write line: read hi, write lo */
 22:
 23:/* 2nd SID is potentially activated if the address lines match the  address selectors. */
 24:/* 0 if SID2 selected, 1 if SID2 not selected */
 25:NOT_SID2_SEL = ((A5$A5_SEL)#(A8$A8_SEL))&(!((A5_SEL&A8_SEL)&(A5$A8)));
 26:
 27:/* Dual mono mode is active if A5 and A8 are both closed/low/0, i.e. if either is 1 or both are, it's not active */
 28:/* 0 if dual mono is selected, 1 otherwise */ 
 29:NOT_DUAL_MONO = A5_SEL#A8_SEL;
 30:
 31:/* 1st SID is active if the 2nd one isn't or is Dual Mono mode is active: A5_SEL=A8_SEL=0 */
 32:CS_SID1 = CS_SID#((!NOT_SID2_SEL)&NOT_DUAL_MONO);
 33:
 34:/* 2nd SID is active if addresses match and it's not a read access (1) in dual-mono-mode */
 35:CS_SID2 = CS_SID#NOT_SID2_SEL#(RW_SID&(!NOT_DUAL_MONO));
 36:
 37:/* Pass-through RW for 2nd SID */
 38:RW_SID2 = RW_SID;
 39:
 40:
 41:
 42:
 43:
 44:



Jedec Fuse Checksum       (3b58)
Jedec Transmit Checksum   (d8e7)
